{
  "project_info": {
    "project_number": "361119791941",
    "firebase_url": "https://posapp-203007.firebaseio.com",
    "project_id": "posapp-203007",
    "storage_bucket": "posapp-203007.appspot.com"
  },
  "client": [
    {
      "client_info": {
        "mobilesdk_app_id": "1:361119791941:android:e4923572d35b3a62db1c2c",
        "android_client_info": {
          "package_name": "com.dat.pos"
        }
      },
      "oauth_client": [
        {
          "client_id": "361119791941-ntj8lceb49bnvmo2hd4aa3m52p80suip.apps.googleusercontent.com",
          "client_type": 1,
          "android_info": {
            "package_name": "com.dat.pos",
            "certificate_hash": "0c01bdf07cc8e1a59072b037fa30d89729a7f376"
          }
        },
        {
          "client_id": "361119791941-2eirc5o9s7oa12vmqgpj1ja6rc0uaupt.apps.googleusercontent.com",
          "client_type": 3
        }
      ],
      "api_key": [
        {
          "current_key": "AIzaSyC29xqSm8NIhLBS32dzobcmN_jitegpu84"
        }
      ],
      "services": {
        "appinvite_service": {
          "other_platform_oauth_client": [
            {
              "client_id": "361119791941-2eirc5o9s7oa12vmqgpj1ja6rc0uaupt.apps.googleusercontent.com",
              "client_type": 3
            }
          ]
        }
      }
    }
  ],
  "configuration_version": "1"
}